EESchema Schematic File Version 4
EELAYER 30 0
EELAYER END
$Descr A4 11693 8268
encoding utf-8
Sheet 1 1
Title "Garage Door Controller"
Date "2020-05-15"
Rev "v0.1"
Comp "Jason Lewis jason@dickson.st"
Comment1 ""
Comment2 ""
Comment3 ""
Comment4 ""
$EndDescr
$Comp
L Mechanical:MountingHole H1
U 1 1 5EB7C439
P 10400 750
F 0 "H1" H 10500 796 50  0000 L CNN
F 1 "MountingHole" H 10500 705 50  0000 L CNN
F 2 "MountingHole:MountingHole_3.2mm_M3_DIN965_Pad" H 10400 750 50  0001 C CNN
F 3 "~" H 10400 750 50  0001 C CNN
	1    10400 750 
	1    0    0    -1  
$EndComp
$Comp
L Mechanical:MountingHole H2
U 1 1 5EB7CB57
P 10400 1000
F 0 "H2" H 10500 1046 50  0000 L CNN
F 1 "MountingHole" H 10500 955 50  0000 L CNN
F 2 "MountingHole:MountingHole_3.2mm_M3_DIN965_Pad" H 10400 1000 50  0001 C CNN
F 3 "~" H 10400 1000 50  0001 C CNN
	1    10400 1000
	1    0    0    -1  
$EndComp
$Comp
L Mechanical:MountingHole H3
U 1 1 5EB7CE3C
P 10400 1250
F 0 "H3" H 10500 1296 50  0000 L CNN
F 1 "MountingHole" H 10500 1205 50  0000 L CNN
F 2 "MountingHole:MountingHole_3.2mm_M3_DIN965_Pad" H 10400 1250 50  0001 C CNN
F 3 "~" H 10400 1250 50  0001 C CNN
	1    10400 1250
	1    0    0    -1  
$EndComp
$Comp
L Mechanical:MountingHole H4
U 1 1 5EB7D13A
P 10400 1500
F 0 "H4" H 10500 1546 50  0000 L CNN
F 1 "MountingHole" H 10500 1455 50  0000 L CNN
F 2 "MountingHole:MountingHole_3.2mm_M3_DIN965_Pad" H 10400 1500 50  0001 C CNN
F 3 "~" H 10400 1500 50  0001 C CNN
	1    10400 1500
	1    0    0    -1  
$EndComp
$Comp
L Connector:Screw_Terminal_01x02 J1
U 1 1 5EBF7556
P 1700 5850
F 0 "J1" H 1850 5850 50  0000 C CNN
F 1 "Screw_Terminal_01x02" H 1400 5500 50  0000 C CNN
F 2 "TerminalBlock_Phoenix:TerminalBlock_Phoenix_MKDS-1,5-2-5.08_1x02_P5.08mm_Horizontal" H 1700 5850 50  0001 C CNN
F 3 "~" H 1700 5850 50  0001 C CNN
	1    1700 5850
	-1   0    0    1   
$EndComp
$Comp
L Connector:Screw_Terminal_01x02 J2
U 1 1 5EBFCEAA
P 1700 6050
F 0 "J2" H 1850 6000 50  0000 C CNN
F 1 "Screw_Terminal_01x02" H 2150 6400 50  0001 C CNN
F 2 "TerminalBlock_Phoenix:TerminalBlock_Phoenix_MKDS-1,5-2-5.08_1x02_P5.08mm_Horizontal" H 1700 6050 50  0001 C CNN
F 3 "~" H 1700 6050 50  0001 C CNN
	1    1700 6050
	-1   0    0    1   
$EndComp
$Comp
L power:GND #PWR01
U 1 1 5EBDDF78
P 2000 6250
F 0 "#PWR01" H 2000 6000 50  0001 C CNN
F 1 "GND" H 2005 6077 50  0000 C CNN
F 2 "" H 2000 6250 50  0001 C CNN
F 3 "" H 2000 6250 50  0001 C CNN
	1    2000 6250
	1    0    0    -1  
$EndComp
$Comp
L Connector:Screw_Terminal_01x02 J3
U 1 1 5EC1761F
P 1700 6250
F 0 "J3" H 1850 6200 50  0000 C CNN
F 1 "Screw_Terminal_01x02" H 2150 6600 50  0001 C CNN
F 2 "TerminalBlock_Phoenix:TerminalBlock_Phoenix_MKDS-1,5-2-5.08_1x02_P5.08mm_Horizontal" H 1700 6250 50  0001 C CNN
F 3 "~" H 1700 6250 50  0001 C CNN
	1    1700 6250
	-1   0    0    1   
$EndComp
Wire Wire Line
	1900 5850 2100 5850
Wire Wire Line
	2100 5850 2100 6050
Wire Wire Line
	2100 6050 1900 6050
Wire Wire Line
	2100 6050 2100 6250
Wire Wire Line
	2100 6250 2000 6250
Connection ~ 2100 6050
Connection ~ 2000 6250
Wire Wire Line
	2000 6250 1900 6250
Wire Wire Line
	1900 5950 3100 5950
Wire Wire Line
	3300 6150 1900 6150
Wire Wire Line
	1900 5750 2900 5750
$Comp
L dk_Signal-Relays-Up-to-2-Amps:G5V-1-DC5 RLY2
U 1 1 5EB92FA3
P 8400 4900
F 0 "RLY2" V 7935 4900 50  0000 C CNN
F 1 "G5V-1-DC3" V 8026 4900 50  0000 C CNN
F 2 "digikey-footprints:Relay_THT_G5V-1" H 8600 5100 50  0001 L CNN
F 3 "https://omronfs.omron.com/en_US/ecb/products/pdf/en-g5v_1.pdf" H 8600 5200 60  0001 L CNN
F 4 "Z2204-ND" H 8600 5300 60  0001 L CNN "Digi-Key_PN"
F 5 "G5V-1-DC3" H 8600 5400 60  0001 L CNN "MPN"
F 6 "Relays" H 8600 5500 60  0001 L CNN "Category"
F 7 "Signal Relays, Up to 2 Amps" H 8600 5600 60  0001 L CNN "Family"
F 8 "https://omronfs.omron.com/en_US/ecb/products/pdf/en-g5v_1.pdf" H 8600 5700 60  0001 L CNN "DK_Datasheet_Link"
F 9 "/product-detail/en/omron-electronics-inc-emc-div/G5V-1-DC5/Z773-ND/87831" H 8600 5800 60  0001 L CNN "DK_Detail_Page"
F 10 "RELAY GEN PURPOSE SPDT 1A 3VDC" H 8600 5900 60  0001 L CNN "Description"
F 11 "Omron Electronics Inc-EMC Div" H 8600 6000 60  0001 L CNN "Manufacturer"
F 12 "Active" H 8600 6100 60  0001 L CNN "Status"
	1    8400 4900
	0    1    1    0   
$EndComp
$Comp
L dk_Diodes-Rectifiers-Single:1N4148WS D1
U 1 1 5EBA3D96
P 7350 4400
F 0 "D1" V 7550 4550 60  0000 C CNN
F 1 "1N4148WS" V 7350 4800 60  0000 C CNN
F 2 "digikey-footprints:SOD-323F" H 7550 4600 60  0001 L CNN
F 3 "https://www.onsemi.com/pub/Collateral/1N914BWS-D.pdf" H 7550 4700 60  0001 L CNN
F 4 "1N4148WSFSCT-ND" H 7550 4800 60  0001 L CNN "Digi-Key_PN"
F 5 "1N4148WS" H 7550 4900 60  0001 L CNN "MPN"
F 6 "Discrete Semiconductor Products" H 7550 5000 60  0001 L CNN "Category"
F 7 "Diodes - Rectifiers - Single" H 7550 5100 60  0001 L CNN "Family"
F 8 "https://www.onsemi.com/pub/Collateral/1N914BWS-D.pdf" H 7550 5200 60  0001 L CNN "DK_Datasheet_Link"
F 9 "/product-detail/en/on-semiconductor/1N4148WS/1N4148WSFSCT-ND/1873821" H 7550 5300 60  0001 L CNN "DK_Detail_Page"
F 10 "DIODE GEN PURP 75V 150MA SOD323F" H 7550 5400 60  0001 L CNN "Description"
F 11 "ON Semiconductor" H 7550 5500 60  0001 L CNN "Manufacturer"
F 12 "Active" H 7550 5600 60  0001 L CNN "Status"
	1    7350 4400
	0    -1   -1   0   
$EndComp
$Comp
L dk_Diodes-Rectifiers-Single:1N4148WS D2
U 1 1 5EBA4293
P 7200 1500
F 0 "D2" V 7253 1422 60  0000 R CNN
F 1 "1N4148WS" V 7200 2050 60  0000 R CNN
F 2 "digikey-footprints:SOD-323F" H 7400 1700 60  0001 L CNN
F 3 "https://www.onsemi.com/pub/Collateral/1N914BWS-D.pdf" H 7400 1800 60  0001 L CNN
F 4 "1N4148WSFSCT-ND" H 7400 1900 60  0001 L CNN "Digi-Key_PN"
F 5 "1N4148WS" H 7400 2000 60  0001 L CNN "MPN"
F 6 "Discrete Semiconductor Products" H 7400 2100 60  0001 L CNN "Category"
F 7 "Diodes - Rectifiers - Single" H 7400 2200 60  0001 L CNN "Family"
F 8 "https://www.onsemi.com/pub/Collateral/1N914BWS-D.pdf" H 7400 2300 60  0001 L CNN "DK_Datasheet_Link"
F 9 "/product-detail/en/on-semiconductor/1N4148WS/1N4148WSFSCT-ND/1873821" H 7400 2400 60  0001 L CNN "DK_Detail_Page"
F 10 "DIODE GEN PURP 75V 150MA SOD323F" H 7400 2500 60  0001 L CNN "Description"
F 11 "ON Semiconductor" H 7400 2600 60  0001 L CNN "Manufacturer"
F 12 "Active" H 7400 2700 60  0001 L CNN "Status"
	1    7200 1500
	0    -1   -1   0   
$EndComp
$Comp
L Connector:Screw_Terminal_01x02 J5
U 1 1 5EBA7021
P 8600 2850
F 0 "J5" V 8750 2800 50  0000 C CNN
F 1 "Screw_Terminal_01x02" H 9050 3200 50  0001 C CNN
F 2 "TerminalBlock_Phoenix:TerminalBlock_Phoenix_MKDS-1,5-2-5.08_1x02_P5.08mm_Horizontal" H 8600 2850 50  0001 C CNN
F 3 "~" H 8600 2850 50  0001 C CNN
	1    8600 2850
	0    -1   1    0   
$EndComp
$Comp
L Device:R R5
U 1 1 5EBBBD76
P 6150 2350
F 0 "R5" H 6250 2350 50  0000 L CNN
F 1 "10k" V 6150 2300 50  0000 L CNN
F 2 "Resistor_SMD:R_0805_2012Metric_Pad1.15x1.40mm_HandSolder" V 6080 2350 50  0001 C CNN
F 3 "~" H 6150 2350 50  0001 C CNN
	1    6150 2350
	1    0    0    -1  
$EndComp
$Comp
L Device:R R6
U 1 1 5EBBC4B3
P 6150 5150
F 0 "R6" H 6200 5150 50  0000 L CNN
F 1 "10k" V 6150 5100 50  0000 L CNN
F 2 "Resistor_SMD:R_0805_2012Metric_Pad1.15x1.40mm_HandSolder" V 6080 5150 50  0001 C CNN
F 3 "~" H 6150 5150 50  0001 C CNN
	1    6150 5150
	1    0    0    -1  
$EndComp
$Comp
L Device:R R4
U 1 1 5EBBC7E0
P 5750 2100
F 0 "R4" V 5650 2050 50  0000 L CNN
F 1 "1k" V 5751 2022 50  0000 L CNN
F 2 "Resistor_SMD:R_0805_2012Metric_Pad1.15x1.40mm_HandSolder" V 5680 2100 50  0001 C CNN
F 3 "~" H 5750 2100 50  0001 C CNN
	1    5750 2100
	0    1    1    0   
$EndComp
$Comp
L Device:R R7
U 1 1 5EBBCB34
P 5800 5000
F 0 "R7" V 5700 4950 50  0000 L CNN
F 1 "1k" V 5801 4922 50  0000 L CNN
F 2 "Resistor_SMD:R_0805_2012Metric_Pad1.15x1.40mm_HandSolder" V 5730 5000 50  0001 C CNN
F 3 "~" H 5800 5000 50  0001 C CNN
	1    5800 5000
	0    -1   -1   0   
$EndComp
Wire Wire Line
	5600 2100 5250 2100
$Comp
L power:+3.3V #PWR0101
U 1 1 5EC08477
P 8100 1200
F 0 "#PWR0101" H 8100 1050 50  0001 C CNN
F 1 "+3.3V" H 8115 1373 50  0000 C CNN
F 2 "" H 8100 1200 50  0001 C CNN
F 3 "" H 8100 1200 50  0001 C CNN
	1    8100 1200
	1    0    0    -1  
$EndComp
Wire Wire Line
	8900 2450 8700 2450
Wire Wire Line
	8700 2450 8700 2650
Wire Wire Line
	8300 2450 8600 2450
Wire Wire Line
	8600 2450 8600 2650
Wire Wire Line
	5650 5000 5300 5000
Wire Wire Line
	8100 5100 8100 5400
Wire Wire Line
	8100 5400 8350 5400
Wire Wire Line
	8350 5400 8350 5600
Wire Wire Line
	8450 5600 8450 5400
Wire Wire Line
	8450 5400 8700 5400
Wire Wire Line
	8700 5400 8700 5100
$Comp
L power:+3.3V #PWR0102
U 1 1 5EBD768A
P 7850 4000
F 0 "#PWR0102" H 7850 3850 50  0001 C CNN
F 1 "+3.3V" H 7865 4173 50  0000 C CNN
F 2 "" H 7850 4000 50  0001 C CNN
F 3 "" H 7850 4000 50  0001 C CNN
	1    7850 4000
	1    0    0    -1  
$EndComp
Wire Wire Line
	7350 4200 7350 4000
Wire Wire Line
	7350 4000 7600 4000
Wire Wire Line
	7350 4700 7350 4600
Wire Wire Line
	7350 4700 6950 4700
Connection ~ 7350 4700
Text Label 5300 2100 0    50   ~ 0
GPIO22
Text Label 5600 5000 2    50   ~ 0
GPIO19
NoConn ~ 8100 4900
NoConn ~ 8700 4900
NoConn ~ 2550 4950
$Comp
L dk_LED-Indication-Discrete:151033RS03000 LED1
U 1 1 5EC57046
P 7750 1700
F 0 "LED1" V 7700 1400 60  0000 L CNN
F 1 "151033RS03000" V 7950 1350 60  0000 L CNN
F 2 "LED_SMD:LED_0805_2012Metric_Pad1.15x1.40mm_HandSolder" H 7950 1900 60  0001 L CNN
F 3 "https://katalog.we-online.de/led/datasheet/151033RS03000.pdf" H 7950 2000 60  0001 L CNN
F 4 "732-5013-ND" H 7950 2100 60  0001 L CNN "Digi-Key_PN"
F 5 "151033RS03000" H 7950 2200 60  0001 L CNN "MPN"
F 6 "Optoelectronics" H 7950 2300 60  0001 L CNN "Category"
F 7 "LED Indication - Discrete" H 7950 2400 60  0001 L CNN "Family"
F 8 "https://katalog.we-online.de/led/datasheet/151033RS03000.pdf" H 7950 2500 60  0001 L CNN "DK_Datasheet_Link"
F 9 "/product-detail/en/wurth-electronics-inc/151033RS03000/732-5013-ND/4490003" H 7950 2600 60  0001 L CNN "DK_Detail_Page"
F 10 "LED RED CLEAR 3MM ROUND T/H" H 7950 2700 60  0001 L CNN "Description"
F 11 "Wurth Electronics Inc." H 7950 2800 60  0001 L CNN "Manufacturer"
F 12 "Active" H 7950 2900 60  0001 L CNN "Status"
	1    7750 1700
	0    1    1    0   
$EndComp
$Comp
L dk_LED-Indication-Discrete:151033RS03000 LED2
U 1 1 5EC57537
P 7600 4600
F 0 "LED2" V 7800 4700 60  0000 R CNN
F 1 "151033RS03000" V 7900 5000 60  0000 R CNN
F 2 "LED_SMD:LED_0805_2012Metric_Pad1.15x1.40mm_HandSolder" H 7800 4800 60  0001 L CNN
F 3 "https://katalog.we-online.de/led/datasheet/151033RS03000.pdf" H 7800 4900 60  0001 L CNN
F 4 "732-5013-ND" H 7800 5000 60  0001 L CNN "Digi-Key_PN"
F 5 "151033RS03000" H 7800 5100 60  0001 L CNN "MPN"
F 6 "Optoelectronics" H 7800 5200 60  0001 L CNN "Category"
F 7 "LED Indication - Discrete" H 7800 5300 60  0001 L CNN "Family"
F 8 "https://katalog.we-online.de/led/datasheet/151033RS03000.pdf" H 7800 5400 60  0001 L CNN "DK_Datasheet_Link"
F 9 "/product-detail/en/wurth-electronics-inc/151033RS03000/732-5013-ND/4490003" H 7800 5500 60  0001 L CNN "DK_Detail_Page"
F 10 "LED RED CLEAR 3MM ROUND T/H" H 7800 5600 60  0001 L CNN "Description"
F 11 "Wurth Electronics Inc." H 7800 5700 60  0001 L CNN "Manufacturer"
F 12 "Active" H 7800 5800 60  0001 L CNN "Status"
	1    7600 4600
	0    1    1    0   
$EndComp
$Comp
L Device:R R9
U 1 1 5EC59740
P 7750 1350
F 0 "R9" V 7650 1300 50  0000 L CNN
F 1 "220" V 7751 1272 50  0000 L CNN
F 2 "Resistor_SMD:R_0805_2012Metric_Pad1.15x1.40mm_HandSolder" V 7680 1350 50  0001 C CNN
F 3 "~" H 7750 1350 50  0001 C CNN
	1    7750 1350
	-1   0    0    1   
$EndComp
$Comp
L Device:R R8
U 1 1 5EC59CC7
P 7600 4150
F 0 "R8" H 7450 4150 50  0000 L CNN
F 1 "220" V 7601 4072 50  0000 L CNN
F 2 "Resistor_SMD:R_0805_2012Metric_Pad1.15x1.40mm_HandSolder" V 7530 4150 50  0001 C CNN
F 3 "~" H 7600 4150 50  0001 C CNN
	1    7600 4150
	1    0    0    -1  
$EndComp
Wire Wire Line
	8100 4700 7600 4700
Connection ~ 7600 4700
Wire Wire Line
	7600 4700 7350 4700
Connection ~ 7600 4000
Wire Wire Line
	7600 4000 7850 4000
Wire Wire Line
	7600 4300 7600 4400
$Comp
L power:GND #PWR03
U 1 1 5EC8CB20
P 6650 2500
F 0 "#PWR03" H 6650 2250 50  0001 C CNN
F 1 "GND" H 6655 2327 50  0000 C CNN
F 2 "" H 6650 2500 50  0001 C CNN
F 3 "" H 6650 2500 50  0001 C CNN
	1    6650 2500
	1    0    0    -1  
$EndComp
$Comp
L power:GND #PWR04
U 1 1 5EC8D792
P 6950 5450
F 0 "#PWR04" H 6950 5200 50  0001 C CNN
F 1 "GND" H 6955 5277 50  0000 C CNN
F 2 "" H 6950 5450 50  0001 C CNN
F 3 "" H 6950 5450 50  0001 C CNN
	1    6950 5450
	1    0    0    -1  
$EndComp
$Comp
L Device:C_Small C1
U 1 1 5EC18B65
P 9150 1300
F 0 "C1" H 9000 1300 50  0000 C CNN
F 1 "1uF" H 8950 1450 50  0000 C CNN
F 2 "Capacitor_SMD:C_0805_2012Metric_Pad1.15x1.40mm_HandSolder" H 9150 1300 50  0001 C CNN
F 3 "~" H 9150 1300 50  0001 C CNN
	1    9150 1300
	-1   0    0    1   
$EndComp
$Comp
L power:GND #PWR07
U 1 1 5EC1C832
P 9150 1500
F 0 "#PWR07" H 9150 1250 50  0001 C CNN
F 1 "GND" H 9155 1327 50  0000 C CNN
F 2 "" H 9150 1500 50  0001 C CNN
F 3 "" H 9150 1500 50  0001 C CNN
	1    9150 1500
	1    0    0    -1  
$EndComp
$Comp
L Device:C_Small C2
U 1 1 5EC4F1D5
P 9500 4100
F 0 "C2" H 9750 4100 50  0000 C CNN
F 1 "1uF" H 9750 4000 50  0000 C CNN
F 2 "Capacitor_SMD:C_0805_2012Metric_Pad1.15x1.40mm_HandSolder" H 9500 4100 50  0001 C CNN
F 3 "~" H 9500 4100 50  0001 C CNN
	1    9500 4100
	1    0    0    -1  
$EndComp
$Comp
L power:GND #PWR06
U 1 1 5EC4F1E0
P 9500 4550
F 0 "#PWR06" H 9500 4300 50  0001 C CNN
F 1 "GND" H 9505 4377 50  0000 C CNN
F 2 "" H 9500 4550 50  0001 C CNN
F 3 "" H 9500 4550 50  0001 C CNN
	1    9500 4550
	1    0    0    -1  
$EndComp
Wire Wire Line
	9500 4000 8950 4000
Wire Wire Line
	3850 3500 3950 3500
$Comp
L Device:R R11
U 1 1 5EBF6F60
P 3700 3500
F 0 "R11" V 3800 3500 50  0000 L CNN
F 1 "150" V 3701 3422 50  0000 L CNN
F 2 "Resistor_SMD:R_0805_2012Metric_Pad1.15x1.40mm_HandSolder" V 3630 3500 50  0001 C CNN
F 3 "~" H 3700 3500 50  0001 C CNN
	1    3700 3500
	0    1    1    0   
$EndComp
Wire Wire Line
	3300 3500 3550 3500
Wire Wire Line
	3100 3400 3550 3400
Wire Wire Line
	2900 3700 3550 3700
Wire Wire Line
	3850 3400 3950 3400
$Comp
L Device:R R10
U 1 1 5EBDA3AE
P 3700 3400
F 0 "R10" V 3600 3350 50  0000 L CNN
F 1 "150" V 3701 3322 50  0000 L CNN
F 2 "Resistor_SMD:R_0805_2012Metric_Pad1.15x1.40mm_HandSolder" V 3630 3400 50  0001 C CNN
F 3 "~" H 3700 3400 50  0001 C CNN
	1    3700 3400
	0    1    1    0   
$EndComp
Wire Wire Line
	3850 3700 3950 3700
$Comp
L Device:R R12
U 1 1 5EBD939B
P 3700 3700
F 0 "R12" V 3800 3700 50  0000 L CNN
F 1 "150" V 3701 3622 50  0000 L CNN
F 2 "Resistor_SMD:R_0805_2012Metric_Pad1.15x1.40mm_HandSolder" V 3630 3700 50  0001 C CNN
F 3 "~" H 3700 3700 50  0001 C CNN
	1    3700 3700
	0    1    1    0   
$EndComp
NoConn ~ 5100 4500
Text Label 5200 3600 0    50   ~ 0
GPIO22
Wire Wire Line
	5100 3600 5600 3600
NoConn ~ 5100 3300
NoConn ~ 5100 3400
NoConn ~ 5100 3500
NoConn ~ 5100 3800
NoConn ~ 5100 3900
NoConn ~ 5100 4000
NoConn ~ 5100 4100
NoConn ~ 5100 4300
NoConn ~ 5100 4400
NoConn ~ 3950 4400
NoConn ~ 3950 4300
NoConn ~ 3950 4200
NoConn ~ 3950 4100
NoConn ~ 3950 4000
NoConn ~ 3950 3900
NoConn ~ 3950 3800
NoConn ~ 3950 3600
NoConn ~ 3950 3300
NoConn ~ 3950 3200
NoConn ~ 3950 3100
Text Label 2750 4500 0    50   ~ 0
GND
Wire Wire Line
	2900 5450 2900 5750
Wire Wire Line
	3000 4850 3200 4850
Connection ~ 3000 4850
Wire Wire Line
	2800 4850 3000 4850
Connection ~ 2800 4850
Wire Wire Line
	2400 4850 2800 4850
Wire Wire Line
	3300 5450 3300 6150
Wire Wire Line
	3300 5450 3300 3500
Wire Wire Line
	3200 5450 3300 5450
Wire Wire Line
	3200 5300 3200 5450
Wire Wire Line
	3100 5450 3100 5950
Wire Wire Line
	3100 5450 3100 3400
Wire Wire Line
	3000 5450 3100 5450
Wire Wire Line
	2900 5450 2900 3700
Wire Wire Line
	2800 5450 2900 5450
Wire Wire Line
	2800 5300 2800 5450
Wire Wire Line
	3000 5300 3000 5450
Wire Wire Line
	3200 5000 3200 4850
$Comp
L Device:R R3
U 1 1 5EC4E594
P 3200 5150
F 0 "R3" H 3200 5000 50  0000 L CNN
F 1 "10k" V 3201 5072 50  0000 L CNN
F 2 "Resistor_SMD:R_0805_2012Metric_Pad1.15x1.40mm_HandSolder" V 3130 5150 50  0001 C CNN
F 3 "~" H 3200 5150 50  0001 C CNN
	1    3200 5150
	1    0    0    -1  
$EndComp
Text Label 5200 3100 0    50   ~ 0
GND
Text Label 5200 4200 0    50   ~ 0
GND
Wire Wire Line
	2700 4500 3950 4500
Wire Wire Line
	5450 2850 5450 3200
$Comp
L power:+3.3V #PWR02
U 1 1 5ED659E5
P 2400 4850
F 0 "#PWR02" H 2400 4700 50  0001 C CNN
F 1 "+3.3V" H 2415 5023 50  0000 C CNN
F 2 "" H 2400 4850 50  0001 C CNN
F 3 "" H 2400 4850 50  0001 C CNN
	1    2400 4850
	1    0    0    -1  
$EndComp
Wire Wire Line
	5450 3200 5600 3200
Connection ~ 5450 3200
$Comp
L power:+3.3V #PWR05
U 1 1 5ED4F1E9
P 5450 2850
F 0 "#PWR05" H 5450 2700 50  0001 C CNN
F 1 "+3.3V" H 5465 3023 50  0000 C CNN
F 2 "" H 5450 2850 50  0001 C CNN
F 3 "" H 5450 2850 50  0001 C CNN
	1    5450 2850
	1    0    0    -1  
$EndComp
Wire Wire Line
	5100 3100 5600 3100
Wire Wire Line
	5600 4200 5100 4200
$Comp
L lilygo:TTGOT8_V1.7 U1
U 1 1 5EA22C8C
P 4550 4500
F 0 "U1" H 4550 6215 50  0000 C CNN
F 1 "TTGOT8_V1.7" H 4550 6124 50  0000 C CNN
F 2 "pcb breakout for ttgo board:TTGO_T8_v1.7" H 4100 6300 50  0001 C CNN
F 3 "" H 4100 6300 50  0001 C CNN
	1    4550 4500
	1    0    0    -1  
$EndComp
Wire Wire Line
	5100 3200 5450 3200
Wire Wire Line
	5100 3700 5600 3700
Text Label 5200 3200 0    50   ~ 0
3.3
Text Label 5200 3700 0    50   ~ 0
GPIO19
Wire Wire Line
	3000 4850 3000 5000
Wire Wire Line
	2800 4850 2800 5000
$Comp
L Device:R R2
U 1 1 5EB73CE8
P 3000 5150
F 0 "R2" H 3000 5000 50  0000 L CNN
F 1 "10k" V 3001 5072 50  0000 L CNN
F 2 "Resistor_SMD:R_0805_2012Metric_Pad1.15x1.40mm_HandSolder" V 2930 5150 50  0001 C CNN
F 3 "~" H 3000 5150 50  0001 C CNN
	1    3000 5150
	1    0    0    -1  
$EndComp
$Comp
L Device:R R1
U 1 1 5EB7FEFD
P 2800 5150
F 0 "R1" H 2800 5000 50  0000 L CNN
F 1 "10k" V 2801 5072 50  0000 L CNN
F 2 "Resistor_SMD:R_0805_2012Metric_Pad1.15x1.40mm_HandSolder" V 2730 5150 50  0001 C CNN
F 3 "~" H 2800 5150 50  0001 C CNN
	1    2800 5150
	1    0    0    -1  
$EndComp
Text Label 3250 3700 0    50   ~ 0
GPIO33
Text Label 3300 3500 0    50   ~ 0
GPIO35
Text Label 3300 3400 0    50   ~ 0
GPIO34
Connection ~ 2900 5450
Connection ~ 3100 5450
Connection ~ 3300 5450
$Comp
L jbl~kikad~library:2N7002DW Q1
U 1 1 5ED2F2B0
P 6600 2000
F 0 "Q1" H 6758 2053 60  0000 L CNN
F 1 "2N7002DW" H 6758 1947 60  0000 L CNN
F 2 "digikey-footprints:SOT-363" H 6800 2200 60  0001 L CNN
F 3 "https://www.onsemi.com/pub/Collateral/2N7002DW-D.PDF" H 6800 2300 60  0001 L CNN
F 4 "2N7002DWCT-ND" H 6800 2400 60  0001 L CNN "Digi-Key_PN"
F 5 "2N7002DW" H 6800 2500 60  0001 L CNN "MPN"
F 6 "Discrete Semiconductor Products" H 6800 2600 60  0001 L CNN "Category"
F 7 "Transistors - FETs, MOSFETs - Arrays" H 6800 2700 60  0001 L CNN "Family"
F 8 "https://www.onsemi.com/pub/Collateral/2N7002DW-D.PDF" H 6800 2800 60  0001 L CNN "DK_Datasheet_Link"
F 9 "/product-detail/en/on-semiconductor/2N7002DW/2N7002DWCT-ND/1785790" H 6800 2900 60  0001 L CNN "DK_Detail_Page"
F 10 "MOSFET 2N-CH 60V 0.115A SC70-6" H 6800 3000 60  0001 L CNN "Description"
F 11 "ON Semiconductor" H 6800 3100 60  0001 L CNN "Manufacturer"
F 12 "Active" H 6800 3200 60  0001 L CNN "Status"
	1    6600 2000
	1    0    0    -1  
$EndComp
$Comp
L jbl~kikad~library:2N7002DW Q1
U 2 1 5ED320FF
P 6900 4900
F 0 "Q1" H 7058 4953 60  0000 L CNN
F 1 "2N7002DW" H 7000 4650 60  0000 L CNN
F 2 "digikey-footprints:SOT-363" H 7100 5100 60  0001 L CNN
F 3 "https://www.onsemi.com/pub/Collateral/2N7002DW-D.PDF" H 7100 5200 60  0001 L CNN
F 4 "2N7002DWCT-ND" H 7100 5300 60  0001 L CNN "Digi-Key_PN"
F 5 "2N7002DW" H 7100 5400 60  0001 L CNN "MPN"
F 6 "Discrete Semiconductor Products" H 7100 5500 60  0001 L CNN "Category"
F 7 "Transistors - FETs, MOSFETs - Arrays" H 7100 5600 60  0001 L CNN "Family"
F 8 "https://www.onsemi.com/pub/Collateral/2N7002DW-D.PDF" H 7100 5700 60  0001 L CNN "DK_Datasheet_Link"
F 9 "/product-detail/en/on-semiconductor/2N7002DW/2N7002DWCT-ND/1785790" H 7100 5800 60  0001 L CNN "DK_Detail_Page"
F 10 "MOSFET 2N-CH 60V 0.115A SC70-6" H 7100 5900 60  0001 L CNN "Description"
F 11 "ON Semiconductor" H 7100 6000 60  0001 L CNN "Manufacturer"
F 12 "Active" H 7100 6100 60  0001 L CNN "Status"
	2    6900 4900
	1    0    0    -1  
$EndComp
Wire Wire Line
	5900 2100 6150 2100
Wire Wire Line
	6650 2200 6650 2500
Wire Wire Line
	6650 2500 6150 2500
Connection ~ 6650 2500
Wire Wire Line
	7200 1200 7750 1200
Wire Wire Line
	7200 1300 7200 1200
Wire Wire Line
	6650 1800 7200 1800
Wire Wire Line
	7200 1700 7200 1800
Connection ~ 7200 1800
Wire Wire Line
	7200 1800 7750 1800
Connection ~ 7750 1200
Connection ~ 7750 1800
Wire Wire Line
	6150 2200 6150 2100
Connection ~ 6150 2100
Wire Wire Line
	6150 2100 6350 2100
Wire Wire Line
	7750 1800 8300 1800
$Comp
L dk_Signal-Relays-Up-to-2-Amps:G5V-1-DC5 RLY1
U 1 1 5EB90010
P 8600 2000
F 0 "RLY1" V 8100 1950 50  0000 L CNN
F 1 "G5V-1-DC3" V 8200 1750 50  0000 L CNN
F 2 "digikey-footprints:Relay_THT_G5V-1" H 8800 2200 50  0001 L CNN
F 3 "https://omronfs.omron.com/en_US/ecb/products/pdf/en-g5v_1.pdf" H 8800 2300 60  0001 L CNN
F 4 "Z2204-ND" H 8800 2400 60  0001 L CNN "Digi-Key_PN"
F 5 "G5V-1-DC3" H 8800 2500 60  0001 L CNN "MPN"
F 6 "Relays" H 8800 2600 60  0001 L CNN "Category"
F 7 "Signal Relays, Up to 2 Amps" H 8800 2700 60  0001 L CNN "Family"
F 8 "https://omronfs.omron.com/en_US/ecb/products/pdf/en-g5v_1.pdf" H 8800 2800 60  0001 L CNN "DK_Datasheet_Link"
F 9 "/product-detail/en/omron-electronics-inc-emc-div/G5V-1-DC5/Z773-ND/87831" H 8800 2900 60  0001 L CNN "DK_Detail_Page"
F 10 "RELAY GEN PURPOSE SPDT 1A 3VDC" H 8800 3000 60  0001 L CNN "Description"
F 11 "Omron Electronics Inc-EMC Div" H 8800 3100 60  0001 L CNN "Manufacturer"
F 12 "Active" H 8800 3200 60  0001 L CNN "Status"
	1    8600 2000
	0    1    1    0   
$EndComp
NoConn ~ 8300 2000
NoConn ~ 8900 2000
Wire Wire Line
	8900 1200 8900 1800
Wire Wire Line
	7750 1200 8100 1200
Wire Wire Line
	8300 2200 8300 2450
Wire Wire Line
	8900 2200 8900 2450
Connection ~ 8100 1200
Wire Wire Line
	8100 1200 8900 1200
Wire Wire Line
	8900 1200 9150 1200
Connection ~ 8900 1200
Wire Wire Line
	9150 1400 9150 1500
Wire Wire Line
	5950 5000 6150 5000
Wire Wire Line
	6150 5300 6950 5300
Wire Wire Line
	6950 5100 6950 5300
Connection ~ 6150 5000
Wire Wire Line
	6150 5000 6650 5000
Connection ~ 6950 5300
Wire Wire Line
	6950 5300 6950 5450
Connection ~ 7850 4000
Wire Wire Line
	8700 4700 8950 4700
Wire Wire Line
	8950 4700 8950 4000
Connection ~ 8950 4000
Wire Wire Line
	9500 4200 9500 4550
Text Notes 1400 6000 2    50   ~ 0
To Reed Switches
$Comp
L Connector:Screw_Terminal_01x02 J4
U 1 1 5EBA7C36
P 8350 5800
F 0 "J4" V 8500 5750 50  0000 C CNN
F 1 "Screw_Terminal_01x02" H 8800 6150 50  0001 C CNN
F 2 "TerminalBlock_Phoenix:TerminalBlock_Phoenix_MKDS-1,5-2-5.08_1x02_P5.08mm_Horizontal" H 8350 5800 50  0001 C CNN
F 3 "~" H 8350 5800 50  0001 C CNN
	1    8350 5800
	0    -1   1    0   
$EndComp
Wire Wire Line
	7850 4000 8950 4000
$Bitmap
Pos 10900 6950
Scale 1.000000
Data
89 50 4E 47 0D 0A 1A 0A 00 00 00 0D 49 48 44 52 00 00 00 5F 00 00 00 64 08 03 00 00 00 D7 2F 1C 
A9 00 00 00 03 73 42 49 54 08 08 08 DB E1 4F E0 00 00 02 A0 50 4C 54 45 47 70 4C 00 99 B0 00 99 
B0 00 99 B0 00 9C B1 00 99 B0 00 98 B1 00 99 B0 00 99 B0 00 99 B0 00 9A B1 00 99 B0 00 A2 AD 00 
99 B0 00 99 B0 00 99 B0 00 99 B0 00 9A B1 00 99 B0 00 99 B0 00 99 B0 00 99 B0 00 99 B0 00 99 B0 
00 96 AF 00 A1 B8 00 99 B0 00 99 B0 00 99 B0 00 99 B0 00 96 AC 00 99 B0 00 98 AF 00 9A B0 00 99 
B0 00 99 B0 00 99 B0 00 99 B0 00 9A B0 00 99 B0 00 99 B0 00 9A B0 00 99 B0 00 99 B0 00 99 B0 00 
99 B0 00 99 B0 00 99 B1 00 99 B0 00 99 B0 00 99 B0 00 99 B0 00 99 B0 00 99 B0 00 99 B0 00 99 B0 
00 99 B0 00 99 B0 00 99 B0 00 9A B1 00 99 B0 00 99 B0 00 99 B0 00 99 B2 00 99 B0 00 99 B0 00 99 
B0 00 99 B0 00 99 B0 00 99 B0 00 99 B0 00 99 B0 00 99 B0 00 99 B1 00 9C AD 00 9A B0 00 99 B0 00 
99 B0 00 99 B0 00 99 B0 00 9A AF 00 9A AF 00 99 B0 00 99 B0 00 99 B1 00 99 B0 00 99 B0 00 99 B0 
00 99 B0 00 99 B0 00 88 BA 00 99 B0 00 99 B0 00 99 B0 00 98 B0 00 99 B0 00 99 B0 00 9E BD 00 99 
B0 00 9A B1 00 99 B0 00 99 B0 00 99 B0 00 99 B1 00 99 B0 00 99 B0 00 9A B0 00 99 B0 00 99 B0 00 
99 AB 00 98 B2 00 99 B0 00 99 B0 00 99 B0 00 9A B1 00 99 B0 00 99 B0 00 98 B0 00 99 B0 00 99 B1 
00 99 B0 00 99 AF 00 99 B0 00 94 B4 00 99 B0 00 99 B0 00 9A B0 00 98 B0 00 99 B0 00 99 AD 00 9B 
AD 00 99 AF 00 9C AD 00 FF FF 00 98 AF 00 9A AF 00 97 B3 00 99 B0 00 98 B1 00 99 AF 00 99 AF 00 
99 B0 00 98 B2 00 99 B3 00 9A B0 00 9A B0 00 98 AE 00 99 B1 00 98 AF 00 99 B1 00 92 B6 00 99 B0 
00 99 B0 00 99 B3 00 99 B0 00 99 B0 00 98 B0 00 99 AF 00 97 AF 00 99 B0 00 9A AE 00 97 AF 00 9A 
B1 00 96 AD 00 9F AF 00 99 B0 00 99 B0 00 99 B0 00 98 AF 00 98 B1 00 9A AF 00 99 B1 00 9A AF 00 
99 B0 00 99 B3 00 98 B1 00 98 B0 00 99 B1 00 98 AF 00 99 B1 00 99 B1 00 99 B0 00 99 AF 00 99 B0 
00 98 B0 00 99 99 00 99 B0 00 99 B1 00 95 B5 00 98 B2 00 9A B0 00 99 B0 00 98 AF 00 99 AF 00 80 
80 00 99 B0 00 99 B1 00 99 B0 00 8E AA 00 99 AF 00 99 B0 00 99 B1 00 99 B0 00 9A B1 00 98 B1 00 
9B AF 00 99 B0 00 99 B0 00 99 B1 00 98 B0 00 AA AA 00 99 B0 00 99 B0 00 98 AF 00 99 AF 00 98 B0 
00 98 B1 00 9B B2 00 99 B0 00 9A B0 00 99 AF 00 98 B0 00 9A AF 00 99 B0 9E 97 4F 06 00 00 00 E0 
74 52 4E 53 00 96 FF DC 0D FE 3B 6B 9A CA 42 5D 03 F6 4E FA B7 1A 29 EE 58 5B 5C A9 13 0B 63 E4 
E7 67 0C 4B 2C 93 F0 F2 2D 9B 23 C5 E9 74 02 C3 22 F3 59 C0 2F 9D F7 E3 BC 78 8B 4A 16 E2 CF 2E 
5E 85 05 0A 37 97 C6 FC AA 49 A8 D8 FD EA 15 65 55 70 B2 7F 3F 60 DB 01 45 40 9F CE F8 CB 04 8A 
94 07 C2 D2 4D 08 90 2B FB 19 AC 41 1C D7 BB 6E F4 0F 25 F5 C7 30 79 48 EB A4 B4 89 E1 39 C1 0E 
4F AF 3C B8 80 19 1C 93 1F 01 63 B0 1B BE 34 7D AD 84 1D 14 B5 A2 2F 98 BD 75 07 D6 E8 28 A7 F1 
35 73 20 E5 11 40 58 22 10 DF D1 87 59 3E 56 82 49 DE 32 A9 61 DD 6D 8C 5F B9 46 B1 4D 05 91 D0 
18 4F 51 D4 26 A0 02 CD B6 8E 09 DA E0 C3 EF 62 7C 33 D5 A5 6C AE 06 ED C8 43 69 9F B3 38 7B BF 
50 54 83 EC 5E 11 3E E5 00 00 00 09 70 48 59 73 00 00 07 6C 00 00 07 6C 01 9C F3 D5 25 00 00 08 
90 49 44 41 54 68 81 ED 9A F9 57 54 47 16 C7 AF 17 5B 45 9B 80 20 04 04 84 E0 C8 92 D8 31 22 10 
16 01 95 04 1A 14 C4 25 DA B6 51 02 12 8C DA 48 58 45 0C E2 D6 E2 12 70 82 06 44 14 08 02 06 15 
8D C6 71 40 89 0A A8 E9 D1 D1 24 86 31 03 66 F9 57 E6 D6 A3 9B 5E 5E 35 BC C7 C0 39 73 CE E4 FE 
D0 5D AF EE F7 7E EA 51 7B 55 03 20 D9 A6 A0 C9 A6 48 0F 92 61 0E 23 7C 87 C9 C0 4F 55 8C F0 15 
53 27 81 3F 0D CD 36 6D 12 F8 D3 2D F8 D3 27 81 3F C3 82 3F 63 12 F8 8E 16 7C C7 FF 1E 37 73 96 
F5 B3 D2 C9 82 EF A4 B4 76 CE 9A 29 17 FF 9A 33 BA CC B6 CC 70 45 4B 73 B5 74 CD 76 41 E7 D7 64 
E3 11 DD E6 58 E4 B8 5B F1 3D 2C 3C 73 DC 28 43 5E 01 02 9E EC 75 4F 63 86 D7 5C 6F 2B BE 8F EF 
3C A3 C7 F3 F5 E1 1C 39 05 98 F0 C4 F1 63 CF FE 6F 04 A0 AD CD 9F F2 17 E6 F2 F3 31 65 48 2F C0 
8C 27 5B 10 E8 11 24 82 0F 5B 90 47 E0 02 8B 47 A9 05 58 E1 E5 98 C4 02 82 C7 89 47 0C 96 C4 0F 
19 37 3F 44 12 FF CD B7 C6 89 7F EB 4D 49 7C 58 A8 1A 17 5E B5 50 1A 1E C0 77 5C 7C 5F A9 78 00 
97 71 E0 5D A4 E3 61 B6 9B 6C BC DB EC B1 B1 66 7B 5B 36 FF 6D 39 78 80 45 32 F1 8B E4 E1 C1 DE 
9C 60 CF 82 E4 E1 DF 91 89 47 7C 47 16 7F B1 6C FE 62 39 78 CF 50 3B 94 25 61 4B EC 78 42 3D C7 
C6 8E 58 38 8F E0 1C F1 6E 24 F9 22 DF 8D E0 4E B0 E1 D2 F1 CA 28 4E 7C 74 CC 88 3F 26 9A E3 8F 
52 8E 42 B4 B6 A5 9C F0 D8 38 0B 41 5C 2C 47 B1 54 0A 3A 7E 99 EF F2 15 09 E2 E0 F7 6C 74 EF 89 
25 09 2B 96 FB 2E 8B B7 8F 8E 7B 3F 3C 31 49 CD AB 5A C4 E4 14 1B 71 4A 32 5F A8 4E 4A 0C 7F 3F 
8E CB 5F C9 8F 10 6C 95 48 BD 6A 14 F5 4A 2E 3F D5 7E 80 0F 47 EE 63 5F 9E 2A 97 9F C6 91 A7 4D 
20 7F 35 47 BE 7A 02 F9 7E 1C B9 DF 04 F2 D3 39 F2 F4 09 E4 AF E1 C8 D7 4C 20 3F 96 23 E7 0D E1 
F1 F2 D7 AE 13 A9 D7 AD 95 CB 9F 6B 3F 00 D7 8B D4 EB 47 51 CF E5 F2 95 1F A4 6E D8 A8 E1 47 6C 
B2 1D F2 71 9B F8 42 CD C6 0D A9 1F 8C 32 93 6A FD DD 37 87 71 E2 22 6C 74 11 1C 4D D8 66 77 7F 
AD 7D B4 D9 3E 14 C7 2A AC F7 AE 21 0A B1 E4 43 29 68 C1 5C C5 C1 B4 C0 6E 19 F1 6F E1 2E CF AE 
A3 10 6D 6C 2B 2F 3E C3 B4 7F 5D 98 C1 73 6F 95 8E 07 0F 1E 00 3F 32 7A 3F E2 7A 3D 46 03 DA 58 
26 6F FF E9 6D 6A 3B AD 37 C7 EB 96 29 83 0F 59 1C 82 79 12 E5 4D 9D 59 72 F0 B0 4D 0C C8 FE 78 
C4 FB 71 B6 D8 BD 4D 16 1F C4 15 94 63 E1 CD 11 57 8F 3C FC 2C F1 0B 6E B7 70 6F 17 BB 67 D9 65 
71 EC 93 00 51 FC 0E 2B C1 0E 91 3F E0 13 E9 F8 75 3B C5 EF B7 CB 4A B1 4B 2C D8 29 9E 63 ED D9 
74 71 B4 2E D7 4A 91 AB 13 4B 24 5F 9A ED CE 13 07 DB DE 88 CD 10 4B F2 76 4B C3 2B 3F 15 C7 62 
BE 8D 28 9F A3 F9 54 DA 0E B7 80 17 2A 52 F1 5E A2 40 12 9F 77 BF 21 EE 7D 9C 1E 2C F1 7E A3 50 
BC 86 15 6D 11 A9 B6 14 89 54 9A 42 49 7C AB 02 14 C5 25 F4 B9 87 A3 DA 43 F9 25 C5 0A F9 78 CB 
02 4A 69 D4 EE 2D 53 F3 6E 2E 16 AA CB F6 D2 48 2E 95 8F 37 17 B0 61 9F F0 C8 1F 9A C3 B9 FB 36 
C8 C7 1B 0B 08 FE 4C 92 F6 B3 60 D9 78 A1 80 72 DB 33 8B 3D 4B 29 97 8D 07 D8 2F 3E B2 D8 B7 55 
FB E5 E2 FF B4 3F ED 7F C3 E2 43 CA 2B 0E 1C 04 38 54 B1 60 DB E2 B2 C3 47 28 4B 7F B4 72 51 D6 
31 4A 54 A4 1D 5B 7E 3C 64 64 9C 9D 38 79 FC F3 AA 6A 4A 9C 3A F9 D7 B4 02 9A 3B 62 2A AA E8 29 
BD 22 9C 45 C7 7C 11 B6 2B 05 6A 4E 97 15 AF A4 9D DE D4 AA 33 25 5F D6 D2 FC 51 C7 66 8F B3 BB 
A1 1E 75 EC 27 16 1F 2A EA 1C CB 6A 38 0F 80 6A 36 F6 F3 8C 7B A7 0B C2 44 A3 5B 06 8D 4D 2C B1 
B6 19 BE C2 0A CA 6F C1 44 8A 56 D1 AA 9A 7C 71 A5 70 37 72 A6 B5 B5 8D 7D B7 7B C1 25 8C DA F5 
75 06 56 92 02 4B 3A 2E 07 E3 15 B8 8A 9D 2D D7 AE B3 1D 09 62 F4 AA 6F 6E 98 2E 4F CE E2 CD 23 
E7 BF 2D D6 43 22 D6 DD F2 6D A3 2D A1 25 1F FF 76 3B 75 6F B5 4A F1 F7 AE CB 49 C5 DD 77 B0 62 
6F 57 06 6E 86 BB F8 35 40 0D 6A 98 A2 87 5D 9E E7 C0 69 BC 09 D0 AA C1 46 10 76 55 DF E0 0D 01 
AF 2C CA 36 DE A1 06 20 CD CC DF 61 92 15 5F D1 08 EC 8C B8 89 3E E7 E9 A1 14 2F 02 DC C3 FB 50 
84 0F 28 34 0F 3D EB B1 01 58 56 18 94 61 5A 6F 6F 6F 11 1D EA D0 B9 8F 1A 06 CF 0E 63 37 A3 73 
FF C3 47 F9 E0 85 09 8F 01 0E A2 CA 8A FF 3D 93 9C C6 03 C3 8D AA D0 11 E2 1C 26 40 28 B2 9D 8D 
01 8F D4 63 14 25 66 E2 3F E0 BE 71 C5 28 04 FA B3 00 7A 4C 7C CF 2A 76 67 A2 09 8C C4 27 F4 D4 
9D AD EE B3 E4 27 31 49 0E DE 12 A4 C7 4C AB 0E 74 B2 C3 BF 27 62 6D 3D AA BB 01 9E 62 09 7C 8E 
5D C6 0E 63 CD 07 E8 EB 39 91 83 FF EC 4B 40 EA 65 CF D0 07 D2 F1 39 E5 7E 69 E6 57 E1 0F 82 50 
AF 53 79 0D 87 84 E1 9D 6E FD 8F E8 CD EA DF 0F A8 E9 BE 80 03 F8 53 1F EC 73 7F 61 C3 57 3E 62 
5B 5C D6 40 0E 18 D2 A7 DD 83 41 70 11 71 3F C4 B7 9B F9 F7 F0 67 DA 29 AD A9 81 01 76 C9 14 48 
C0 7F 21 36 D5 B1 CD 1D F1 35 C7 29 D5 05 A7 92 D1 FB FA 7C DC A9 B7 E6 BF 44 C5 A6 5F 2A 42 F1 
28 1C A5 CE 59 CA 5E 47 FF 1C 15 2B 9E A0 99 AF A7 93 5B 7F 1D BA A5 14 D2 F7 43 35 5E A0 EE D1 
80 E8 7C A5 8F 14 86 5F A8 C2 2E 91 AA 23 89 12 0E D7 6C EB E7 32 5B CB EF 87 13 A5 80 96 CF BC 
97 94 55 4F 8C E4 D3 66 3E 1C AC 24 4D 13 1D F7 6F 06 50 E2 DF CD 94 A5 3D 91 FE 98 49 49 51 5D 
18 29 A8 B4 CF BA 1E E8 E9 7B F0 3C 6B C8 C1 6B A6 FA 3F 54 68 EC A1 B5 D3 06 BB 87 53 8D E9 5E 
9E 83 81 90 39 58 63 D4 34 5E 1D 3E A8 E6 EE 2F EC 01 0B 33 BD 81 5D 6B CD 1D DD 3F 86 8D C5 CF 
14 2A EB FF 9B DF 67 9A 8A 5B 87 37 6E DD 99 7D D0 4C E3 00 F4 3D 02 BF 36 93 B5 7A F7 0B A1 3C 
76 A0 CE CD 35 EA 94 D0 5C CB 52 F3 22 47 E1 0F E5 E1 AB 5F 29 E9 5E 8A 09 FD 8F 4E B1 D1 76 A1 
1F 7F 8E D5 9F 74 43 EF 16 E2 F7 0B 17 4D 6B 83 69 56 3A 81 4B F4 BF B5 A1 7A 63 16 F5 92 5E 5C 
3D 80 4F B2 E0 C1 2B 05 36 DD B2 C7 47 9C AF 46 75 07 78 7E AF 6E 77 CC C3 9D 8C 8F 8A 80 84 F5 
2F 11 55 F3 69 F8 C1 10 BB 07 AA 11 EE 13 0B F0 70 6E 9D 3A 63 40 C7 2E 36 7A 29 36 40 FD 5D 7C 
14 06 38 20 3E B5 C7 FF FD 71 63 3F FB A1 23 B7 03 A0 DA 39 C1 8B F8 6D 17 BB 63 C0 11 A7 28 B5 
0B 88 EF 8A 19 00 57 10 DF 00 78 45 53 F7 3C 9A 30 52 9C B0 95 F8 4D BB B5 35 10 8E E5 F1 7A 5F 
FC 43 CF E7 3B 4D 05 1A FA A6 5F 82 92 68 E2 4E C4 21 96 EC C4 41 DA A6 B3 F6 DD 81 07 E1 B9 43 
D0 12 7D BC F3 1F C6 D3 D6 5D AC 21 3E 1B F6 F0 13 DE A6 B6 28 42 EE 41 6F B8 FF 0C E2 00 80 EF 
46 9D 46 A3 C0 7A E2 B3 E6 80 64 A4 56 8B 64 FC 58 5C 5A 8F 59 05 38 78 95 FD 9D 4F FB 55 4C 97 
4F 7C E1 86 B4 0E 35 1A 96 C1 BB 8E B5 E0 4F C3 D0 AD 95 95 2A 33 FF 2C 1E 62 CB 8C 86 B5 EA 0F 
43 38 D3 1F 23 1E D1 EC F6 0C 35 41 95 95 0D 66 FE 5D 0C AB 64 E6 3F 3A BF 17 A9 FE C1 C7 CC 77 
A0 59 18 3A 84 FE 1F 15 1C FD 44 0B 86 1B CF 55 B5 B4 58 51 75 40 9B 99 7F 8E E6 56 BB 66 E6 3F 
C4 D4 17 FA AB 68 E6 D3 82 59 7D C4 05 43 29 79 07 F1 9C 70 01 78 9D 55 F7 50 A6 7E 3B 9A F9 3F 
62 FB A0 B6 25 ED C1 18 FC 39 88 4E EC 08 3F C2 BF C7 56 BA 6C E1 FD BF 42 74 A7 D3 07 62 0B C0 
AF 88 A1 EC 9E 60 84 AF 74 A4 48 DA 48 70 F9 81 86 33 F4 99 6F 28 A7 B3 6D 7B 5E E7 EF C7 0D 81 
70 D8 70 5B F0 5D 1E 68 28 EB 30 B0 F2 95 ED 9D CD 34 3D 27 39 B0 7F 31 6A 89 D6 19 2E 55 18 5C 
E1 5B C3 6F 82 2E 77 8F 83 AE FF CA 0B 0B EA 7F 00 59 EC 33 E3 8D 8A D1 18 00 00 00 00 49 45 4E 
44 AE 42 60 82 
EndData
$EndBitmap
Text Notes 8050 6100 0    50   ~ 0
To Garage Door 2 Switch
Text Notes 8300 3150 0    50   ~ 0
To Garage Door 1 Switch
$EndSCHEMATC
